%YAML 1.1
%TAG !u! tag:unity3d.com,2011:
--- !u!1045 &1
EditorBuildSettings:
  m_ObjectHideFlags: 0
  serializedVersion: 2
  m_Scenes:
  - enabled: 1
    path: Assets/Scenes/Start Menu.unity
    guid: 317f2145af2d8ec4698fa2f1c27f2828
  - enabled: 1
    path: Assets/Scenes/phase 1.unity
    guid: 2cda990e2423bbf4892e6590ba056729
  - enabled: 1
    path: Assets/Scenes/phase 2.unity
    guid: 0953fc2b2acd9464aa202551cffed673
  - enabled: 1
    path: Assets/Scenes/phase 3.unity
    guid: ba42c979ced73d145a0c59477c263430
  - enabled: 1
    path: Assets/Scenes/win.unity
    guid: 0c204a0ac2c382946bf9847b973f3635
  - enabled: 1
    path: Assets/Scenes/fail.unity
    guid: c9942c5a7fc21534b86ccf9010607c6d
  m_configObjects: {}
